<svg xmlns="http://www.w3.org/2000/svg" width="17" height="17" viewBox="0 0 17 17">
    <path fill="#757575" fill-rule="evenodd" d="M13.141 11.489c1.016 0 1.873.695 2.138 1.64h1.097c.335 0 .607.277.607.616 0 .34-.272.616-.607.616H15.28A2.231 2.231 0 0 1 13.141 16a2.231 2.231 0 0 1-2.137-1.64H.606A.611.611 0 0 1 0 13.745c0-.34.272-.615.606-.615h10.398c.265-.946 1.122-1.641 2.137-1.641zm0 1.23c-.558 0-1.01.46-1.01 1.026 0 .567.452 1.026 1.01 1.026.559 0 1.011-.46 1.011-1.026 0-.566-.452-1.026-1.01-1.026zm-4.65-6.77c.941 0 1.745.597 2.07 1.437h5.815c.335 0 .607.275.607.615 0 .34-.272.615-.607.615h-5.7c-.19 1.05-1.097 1.847-2.185 1.847s-1.994-.798-2.185-1.847h-5.7A.611.611 0 0 1 0 8.001c0-.34.272-.615.606-.615h5.816a2.227 2.227 0 0 1 2.07-1.436zm0 1.231c-.558 0-1.01.46-1.01 1.026 0 .567.452 1.026 1.01 1.026.559 0 1.011-.46 1.011-1.026 0-.566-.452-1.026-1.01-1.026zM3.841 0C4.857 0 5.714.696 5.98 1.641h10.397c.335 0 .607.276.607.616 0 .34-.272.615-.607.615H5.98c-.265.946-1.122 1.642-2.138 1.642-1.015 0-1.872-.696-2.137-1.642H.606A.611.611 0 0 1 0 2.257c0-.34.272-.616.606-.616h1.098C1.969.696 2.826 0 3.84 0zm0 1.231c-.558 0-1.01.46-1.01 1.026 0 .566.452 1.026 1.01 1.026.559 0 1.011-.46 1.011-1.026 0-.567-.452-1.026-1.01-1.026z"/>
</svg>
