{
    "hostname": "",
    "username": "",
    "password": "",
    "storefrontUsername": "storefront",
    "storefrontPassword": "",
    "exclude": ["**/client/**", "node_modules", "**.map"],
    "cartridge": [
        "app_brand_core",
        "app_loccitane_core",
        "app_ysl_core",
        "app_faces_core",
        "app_swarovski_core",
        "plugin_ratingreview",
        "app_storefront_base",
        "bc_csc_actions",
        "bc_library",
        "bm_customfeeds",
        "bm_custom_extensions",
        "int_customfeeds",
        "int_handlerframework",
        "int_service_cloud",
        "int_speedbus",
        "int_payfort",
        "int_checkoutcom",
        "lib_productlist",
        "modules",
        "plugin_applepay",
        "plugin_wishlists",
        "plugin_giftcard",
        "plugin_service_cloud",
        "int_abandonedcart"
    ],
    "code-version": ""
}
