{
  "name": "Categories",
  "group": "commerce_layouts",
  "attribute_definition_groups": [],
  "region_definitions": [
    {
      "id":"topCategories",
      "name":"top Categories",
      "component_type_exclusions": []
    }
  ]
}
