<svg xmlns="http://www.w3.org/2000/svg" width="54" height="54" viewBox="0 0 54 54">
    <g fill="none">
        <g>
            <path fill="#DDD" d="M37.125 0H3.375C1.513.006.005 1.513 0 3.375v20.25c.006 1.862 1.513 3.37 3.375 3.375h33.75c1.862-.006 3.37-1.513 3.375-3.375V3.375C40.494 1.513 38.987.005 37.125 0z" transform="translate(6.75 13.5)"/>
            <path fill="#FFF" d="M37.125 1.125c1.243 0 2.25 1.007 2.25 2.25v20.25c0 1.243-1.007 2.25-2.25 2.25H3.375c-1.243 0-2.25-1.007-2.25-2.25V3.375c0-1.243 1.007-2.25 2.25-2.25h33.75z" transform="translate(6.75 13.5)"/>
        </g>
        <path fill="#FFF" d="M27.975 22.738l-.077.887c.319.051.593.141.824.27.231.129.432.274.603.436l-.27.41c-.042.06-.084.105-.126.135-.042.03-.093.045-.153.045l-.074-.01-.185-.08-.112-.056c-.08-.04-.167-.082-.264-.124-.096-.042-.202-.076-.319-.104l-.157 1.863c.216.067.43.14.64.219.212.08.403.182.572.308.17.126.307.283.412.47.105.188.157.422.157.704 0 .28-.046.541-.139.786-.093.244-.229.46-.407.648-.179.187-.398.34-.66.456-.26.118-.559.188-.895.212l-.054.662c-.006.069-.036.132-.09.19-.054.06-.124.088-.212.088h-.409l.081-.962c-.351-.049-.68-.144-.988-.288-.307-.145-.569-.323-.785-.536l.342-.509c.03-.045.07-.081.12-.11.049-.028.1-.043.154-.043.067 0 .137.024.212.07l.256.165c.097.063.206.125.329.188.123.064.268.11.437.14l.17-2.016c-.213-.06-.423-.13-.632-.211-.208-.082-.396-.189-.562-.322-.167-.134-.301-.302-.403-.507-.102-.204-.153-.458-.153-.764 0-.229.046-.451.137-.669.092-.217.224-.411.398-.582.175-.172.389-.312.644-.424.255-.11.547-.173.878-.189l.049-.567c.006-.072.036-.136.09-.193.054-.057.124-.086.212-.086h.409zm-.841 1.791c-.166.022-.306.057-.424.106-.117.05-.212.11-.288.182-.075.073-.13.153-.164.241-.034.089-.052.182-.052.282 0 .114.02.214.059.301.039.087.094.164.164.232.07.067.154.127.25.18.096.052.201.1.315.142zm1.26 3.753c0-.114-.02-.213-.061-.299-.04-.085-.098-.161-.171-.227-.074-.066-.16-.123-.259-.171-.099-.048-.207-.091-.324-.13l-.153 1.827c.318-.043.559-.15.722-.322.164-.173.245-.398.245-.678z"/>
        <path fill="#3C3C3C" d="M16.276 30.067c.1 0 .185.038.257.114l.715.777c-.396.49-.883.866-1.46 1.127-.58.261-1.273.392-2.083.392-.725 0-1.376-.124-1.954-.372-.579-.247-1.072-.591-1.482-1.032-.41-.442-.723-.968-.942-1.58C9.11 28.881 9 28.213 9 27.488c0-.733.121-1.405.364-2.015.244-.61.585-1.135 1.026-1.576.442-.44.97-.784 1.583-1.03.615-.244 1.293-.367 2.035-.367.725 0 1.358.116 1.9.348.543.231 1.007.538 1.394.921l-.607.844c-.036.054-.082.101-.138.142-.057.04-.134.06-.233.06-.104 0-.21-.04-.318-.121-.108-.081-.245-.169-.411-.264-.167-.094-.377-.182-.631-.263-.255-.08-.577-.121-.969-.121-.459 0-.88.08-1.266.24-.384.16-.715.387-.992.684-.277.298-.493.659-.648 1.084-.155.425-.233.903-.233 1.434 0 .55.078 1.037.233 1.465.155.428.366.787.631 1.08.266.293.578.516.938.672.36.155.747.233 1.162.233.247 0 .47-.014.671-.041.2-.027.385-.07.554-.128.168-.059.328-.134.479-.226l.225-.155.224-.186c.045-.04.092-.073.141-.098.05-.025.104-.037.162-.037zm10.669 2.301H25.54c-.158 0-.287-.039-.388-.118-.102-.078-.175-.176-.22-.293l-.729-1.992h-4.043l-.729 1.992c-.036.103-.107.198-.212.283-.106.086-.236.128-.389.128h-1.41l3.834-9.76h1.856l3.834 9.76zm-6.318-3.685h3.112l-1.244-3.4-.123-.356c-.066-.196-.13-.409-.193-.638l-.185.641-.09.278-1.277 3.475zm12.302-4.3c-.05.1-.107.169-.172.21-.066.04-.143.06-.233.06-.06 0-.125-.015-.195-.046l-.507-.291c-.153-.086-.332-.163-.537-.233-.205-.07-.446-.105-.726-.105-.252 0-.47.03-.658.091-.186.061-.344.145-.472.254-.128.108-.224.237-.287.388-.063.15-.095.316-.095.496 0 .23.065.42.193.573.128.154.298.284.51.392.211.108.452.205.722.29.27.086.545.177.827.274.28.096.556.209.827.337.27.128.51.29.722.486.211.196.381.435.51.719.128.284.192.628.192 1.033 0 .44-.076.854-.226 1.238-.151.385-.372.72-.662 1.006-.29.286-.644.51-1.063.675-.419.164-.898.247-1.438.247-.31 0-.616-.03-.918-.092-.301-.06-.59-.147-.867-.26-.277-.112-.536-.247-.776-.404-.241-.158-.456-.333-.645-.527l.527-.87c.049-.064.109-.117.178-.16.07-.042.148-.064.233-.064.113 0 .234.047.365.139l.462.307c.178.113.387.215.628.307.24.092.53.138.867.138.518 0 .918-.122 1.202-.367.283-.246.425-.598.425-1.057 0-.256-.064-.465-.192-.628-.129-.162-.298-.298-.51-.408-.141-.073-.295-.14-.462-.198l-1.084-.332c-.279-.09-.553-.198-.823-.324-.27-.126-.511-.29-.723-.492-.211-.203-.38-.456-.51-.76-.127-.304-.192-.678-.192-1.124 0-.355.071-.702.213-1.04.142-.337.349-.636.621-.897s.606-.47 1.003-.628c.396-.157.848-.236 1.356-.236.576 0 1.107.09 1.593.27.486.18.9.432 1.242.756l-.445.857zm9.993 7.985h-1.83v-4.266h-4.576v4.266h-1.829v-9.76h1.83v4.198h4.576v-4.198h1.83v9.76z"/>
    </g>
</svg>
