<svg xmlns="http://www.w3.org/2000/svg" width="54" height="54" viewBox="0 0 54 54">
    <g fill="none" transform="translate(6.75 13.5)">
        <rect width="38.25" height="24.75" x="1.125" y="1.125" fill="#FFF" rx="1"/>
        <path fill="#000" d="M13.806 21.31v-1.042c.012-.177-.052-.352-.178-.478-.125-.126-.298-.193-.476-.182-.234-.015-.457.098-.583.296-.116-.192-.326-.306-.55-.296-.194-.01-.38.083-.487.246v-.205h-.36v1.662h.364v-.921c-.016-.116.02-.232.099-.317.079-.086.192-.131.308-.125.24 0 .361.157.361.438v.925h.365v-.921c-.015-.115.022-.231.1-.316.079-.085.191-.131.307-.126.246 0 .364.157.364.438v.925h.366zm5.4-1.66h-.59v-.505h-.365v.504h-.338v.331h.338v.758c0 .386.15.616.577.616.159 0 .315-.045.45-.129l-.105-.309c-.097.058-.206.09-.32.093-.18 0-.239-.112-.239-.277v-.75h.59l.002-.333zm3.084-.042c-.18-.006-.348.088-.438.243v-.202h-.358v1.662h.361v-.932c0-.274.119-.427.355-.427.077-.001.153.013.225.041l.112-.337c-.082-.03-.17-.045-.257-.045v-.003zm-4.662.173c-.204-.121-.438-.181-.675-.173-.421 0-.692.201-.692.532 0 .27.201.437.573.49l.17.025c.198.028.293.08.293.173 0 .128-.132.202-.38.202-.198.005-.392-.056-.552-.175l-.17.282c.211.147.464.223.72.215.48 0 .759-.224.759-.542 0-.292-.22-.45-.58-.497l-.17-.025c-.157-.021-.282-.052-.282-.163 0-.111.118-.195.316-.195.182.003.36.053.518.143l.152-.292zm9.685-.173c-.18-.006-.347.088-.438.243v-.202h-.358v1.662h.361v-.932c0-.274.119-.427.355-.427.077-.001.153.013.225.041l.112-.337c-.082-.03-.17-.045-.257-.045v-.003zm-4.659.873c-.01.236.08.466.25.633.169.166.4.253.637.24.216.01.43-.06.597-.198l-.173-.293c-.125.095-.277.148-.434.15-.281-.018-.5-.251-.5-.532s.219-.514.5-.533c.157.002.309.055.434.15l.173-.292c-.167-.139-.38-.21-.597-.198-.237-.014-.468.073-.637.24-.17.166-.26.396-.25.633zm3.386 0v-.83h-.36v.2c-.126-.16-.322-.251-.526-.242-.46.028-.82.41-.82.872s.36.844.82.873c.204.009.4-.082.525-.243v.201h.361v-.831zm-1.35 0c.016-.274.248-.484.521-.474.274.01.489.238.484.511-.004.274-.227.494-.5.495-.14.002-.273-.055-.37-.156-.095-.1-.144-.237-.135-.376zm-4.362-.873c-.472.023-.84.417-.83.889.01.472.393.85.864.855.249.01.491-.074.682-.232l-.178-.268c-.137.11-.307.171-.483.173-.249.021-.47-.16-.497-.407h1.237c0-.045.007-.09.007-.14.021-.222-.052-.444-.202-.61-.15-.166-.362-.261-.586-.263l-.014.003zm-.007.322c.227-.004.415.176.42.403h-.861c.013-.231.209-.41.44-.402zm9.07.55V18.98h-.361v.868c-.126-.16-.322-.252-.526-.242-.46.028-.82.41-.82.872s.36.844.82.872c.204.01.4-.081.525-.243v.202h.362v-.83zm-1.35 0c.016-.274.247-.484.52-.474.274.01.489.238.484.511-.004.274-.227.494-.5.495-.14.002-.273-.055-.369-.156-.096-.101-.145-.238-.135-.377zm-12.209 0v-.83h-.361v.2c-.125-.16-.321-.251-.525-.242-.461.028-.82.41-.82.872s.359.844.82.872c.204.01.4-.081.525-.242v.2h.361v-.83zm-1.35 0c.016-.274.248-.484.521-.474.273.01.489.238.484.511-.005.274-.227.494-.5.495-.138-.003-.268-.062-.36-.163-.093-.102-.14-.237-.13-.374l-.015.005z"/>
        <path fill="#FF5F00" d="M17.509 6.985H22.984V16.825H17.509z"/>
        <path fill="#EB001B" d="M17.857 11.906c-.001-1.921.881-3.736 2.393-4.92-2.566-2.018-6.251-1.724-8.465.673-2.215 2.398-2.215 6.095 0 8.492 2.214 2.398 5.9 2.692 8.465.675-1.511-1.185-2.394-3-2.393-4.92z"/>
        <path fill="#F79E1B" d="M30.375 11.906c0 2.396-1.368 4.582-3.523 5.629-2.155 1.047-4.719.772-6.602-.71 1.51-1.186 2.39-3 2.39-4.92s-.88-3.733-2.39-4.92c1.883-1.48 4.447-1.756 6.602-.71 2.155 1.048 3.523 3.234 3.523 5.63z"/>
        <path fill="#DDD" d="M37.125 1.125c1.243 0 2.25 1.007 2.25 2.25v20.25c0 1.243-1.007 2.25-2.25 2.25H3.375c-1.243 0-2.25-1.007-2.25-2.25V3.375c0-1.243 1.007-2.25 2.25-2.25h33.75zm0-1.125H3.375C1.513.006.005 1.513 0 3.375v20.25c.006 1.862 1.513 3.37 3.375 3.375h33.75c1.862-.006 3.37-1.513 3.375-3.375V3.375C40.494 1.513 38.987.005 37.125 0z"/>
    </g>
</svg>
