{
    "current": {
        "name": "chalhoub-pdf-service",
        "pass": "vjFldKCas7T+!dfB/)UikvnJAQ"
    },
    "storefront": {
        "username": "storefront",
        "password": "chl123"
    }
}