{
    "name": "General Product Countdown",
    "description": "This is product countdown component.",
    "group": "commerce_assets",
    "attribute_definition_groups": [
        {
            "id": "backgroundImageConfiguration",
            "name": "Background Image Configuration",
            "description": "Select the image to be displayed in the background.",
            "attribute_definitions": [
                {
                    "id": "image",
                    "name": "Image",
                    "description": "Select an image to be displayed on the background",
                    "type": "image",
                    "required": true
                }
            ]
        },
        {
            "id": "submitFormConfiguration",
            "name": "Submit Form Configuration",
            "description": "Title and Subtitle to be displayed on the form.",
            "attribute_definitions": [
                {
                    "id": "title",
                    "name": "Title",
                    "description": "The submit form title shown by the component.",
                    "type": "string",
                    "required": true
                },
                {
                    "id": "subTitle",
                    "name": "SubTitle",
                    "description": "The submit form subtitle shown by the component.",
                    "type": "string",
                    "required": true
                }
            ]
        }
    ],
    "region_definitions": []
}
