<svg xmlns="http://www.w3.org/2000/svg" width="12" height="16" viewBox="0 0 12 16">
    <path fill="#191919" fill-rule="evenodd" d="M5.792.692c1.822 0 3.3 1.53 3.3 3.417v2.279h2.2V15.5h-11V6.388h2.2V4.109l.005-.187C2.59 2.122 4.03.692 5.792.692zm0 1.14c-1.215 0-2.2 1.02-2.2 2.277v2.279h4.4V4.109c0-1.258-.985-2.278-2.2-2.278z"/>
</svg>
