<?xml version="1.0" encoding="UTF-8"?>
<svg width="14px" height="7px" viewBox="0 0 14 7" version="1.1" xmlns="http://www.w3.org/2000/svg" xmlns:xlink="http://www.w3.org/1999/xlink">
    <!-- Generator: sketchtool 63.1 (101010) - https://sketch.com -->
    <title>DC7EE22B-C191-499D-A787-23D04F9DB537</title>
    <desc>Created with sketchtool.</desc>
    <g id="MPP" stroke="none" stroke-width="1" fill="none" fill-rule="evenodd">
        <g id="tb-mpp-newarrivals-375" transform="translate(-23.000000, -56.000000)" fill="#000000" fill-rule="nonzero">
            <g id="nav-375" transform="translate(0.000000, 30.000000)">
                <g id="icon-hamburger-md">
                    <g transform="translate(10.000000, 10.000000)">
                        <path d="M27,22 L27,23 L13,23 L13,22 L27,22 Z M27,16 L27,17 L13,17 L13,16 L27,16 Z"></path>
                    </g>
                </g>
            </g>
        </g>
    </g>
</svg>