<?xml version="1.0" encoding="UTF-8"?>
<svg width="36px" height="36px" viewBox="0 0 36 36" version="1.1" xmlns="http://www.w3.org/2000/svg" xmlns:xlink="http://www.w3.org/1999/xlink">
    <!-- Generator: sketchtool 51.2 (57519) - http://www.bohemiancoding.com/sketch -->
    <title>A08E1CB0-D3A9-4D63-8201-311BA102C2C3-1135-000044E4FF382B1A</title>
    <desc>Created with sketchtool.</desc>
    <defs></defs>
    <g id="----Logos" stroke="none" stroke-width="1" fill="none" fill-rule="evenodd">
        <g id="tb-guide-logos" transform="translate(-80.000000, -525.000000)" fill="#0C2340">
            <g id="iconography/logos/tory-burch/tory-burch-emblem" transform="translate(80.000000, 525.000000)">
                <path d="M18.0003793,36 C27.9253577,36 36,27.9250635 36,17.9998103 C36,8.0745572 27.9253577,0 18.0003793,0 C8.07464228,0 0,8.0745572 0,17.9998103 C0,27.9250635 8.07464228,36 18.0003793,36 Z M2.5,17.9998119 C2.5,9.45338001 9.45308822,2.5 18.0003762,2.5 C26.5469118,2.5 33.5,9.45338001 33.5,17.9998119 C33.5,26.54662 26.5469118,33.5 18.0003762,33.5 C9.45308822,33.5 2.5,26.54662 2.5,17.9998119 Z M18,19.86 C17.53,18.75 16.81,18.5 15.49,18.5 L11.21,18.5 C9.94,18.5 9.19,18.73 8.71,19.86 C8.35879294,18.9411086 7.43734741,18.5 6.45,18.5 L6,18.5 L6,24 L11.57,24 C11.0673287,23.6180908 10.774479,23.0212706 10.78,22.39 C10.7798531,21.7738911 11.0279717,21.1837132 11.4683056,20.7527882 C11.9086394,20.3218632 12.5040379,20.0865478 13.12,20.1 C13.7474924,20.0539729 14.3648559,20.2775852 14.817323,20.7147792 C15.2697902,21.1519732 15.5144615,21.7612975 15.49,22.39 C15.5218373,23.1334423 15.0369371,23.8006982 14.32,24 C15.0948995,24.3749426 15.5879465,25.1591592 15.59,26.02 C15.59,27.38 14.65,28.11 12.65,28.11 C12.42,28.11 12.28,28.11 12,28.11 L12,30 L15.49,30 C16.81,30 17.53,29.73 18,28.62 C18.51,29.73 19.19,30 20.51,30 L24,30 L24,28.15 C23.72,28.15 23.58,28.15 23.35,28.15 C21.41,28.15 20.41,27.42 20.41,26.06 C20.3965749,25.1847509 20.8919917,24.3811615 21.68,24 C20.9630629,23.8006982 20.4781627,23.1334423 20.51,22.39 C20.4855385,21.7612975 20.7302098,21.1519732 21.182677,20.7147792 C21.6351441,20.2775852 22.2525076,20.0539729 22.88,20.1 C23.4959621,20.0865478 24.0913606,20.3218632 24.5316944,20.7527882 C24.9720283,21.1837132 25.2201469,21.7738911 25.22,22.39 C25.225521,23.0212706 24.9326713,23.6180908 24.43,24 L30,24 L30,18.5 L29.55,18.5 C28.5940552,18.5 27.6502891,18.9450932 27.3,19.86 C26.79,18.73 26.06,18.5 24.79,18.5 L20.51,18.5 C19.19,18.5 18.47,18.75 18,19.86 Z M18,16.14 C18.47,17.25 19.19,17.5 20.51,17.5 L24.79,17.5 C26.06,17.5 26.79,17.27 27.3,16.14 C27.6502891,17.0549068 28.5663452,17.5 29.55,17.5 L30,17.5 L30,12 L24.43,12 C24.9326713,12.3819092 25.225521,12.9787294 25.22,13.61 C25.2201469,14.2261089 24.9720283,14.8162868 24.5316944,15.2472118 C24.0913606,15.6781368 23.4959621,15.9134522 22.88,15.9 C22.2525076,15.9460271 21.6351441,15.7224148 21.182677,15.2852208 C20.7302098,14.8480268 20.4855385,14.2387025 20.51,13.61 C20.4781627,12.8665577 20.9630629,12.1993018 21.68,12 C20.8919917,11.6188385 20.3965749,10.8152491 20.41,9.94 C20.41,8.58 21.41,7.85 23.35,7.85 L24,7.85 L24,6 L20.51,6 C19.19,6 18.51,6.27 18,7.38 C17.53,6.27 16.81,6 15.49,6 L12,6 L12,7.89 L12.65,7.89 C14.65,7.89 15.59,8.62 15.59,9.98 C15.5879465,10.8408408 15.0948995,11.6250574 14.32,12 C15.0369371,12.1993018 15.5218373,12.8665577 15.49,13.61 C15.5144615,14.2387025 15.2697902,14.8480268 14.817323,15.2852208 C14.3648559,15.7224148 13.7474924,15.9460271 13.12,15.9 C12.5040379,15.9134522 11.9086394,15.6781368 11.4683056,15.2472118 C11.0279717,14.8162868 10.7798531,14.2261089 10.78,13.61 C10.774479,12.9787294 11.0673287,12.3819092 11.57,12 L6,12 L6,17.5 L6.45,17.5 C7.44140625,17.5 8.35879294,17.0588914 8.71,16.14 C9.19,17.27 9.94,17.5 11.21,17.5 L15.49,17.5 C16.81,17.5 17.53,17.25 18,16.14 Z" id="tory-burch-emblem"></path>
            </g>
        </g>
    </g>
</svg>