{
  "name": "Carousel",
  "group": "commerce_layouts",
  "attribute_definition_groups": [
    {
      "id": "heading",
      "attribute_definitions": [
        {
          "id": "jsonConfig",
          "name": "Config",
          "type": "custom",
          "required": false
        }
        ,{
          "id": "bgColor",
          "name": "Carousel background color",
          "type": "enum",
          "values": ["bg_light"],
          "required": false
        },
        {
          "id": "fullWidth",
          "name": "Full Width Container",
          "type": "boolean",
          "required": false
        },
        {
          "id": "fullWidthFromTablet",
          "name": "Full Width From Tablet",
          "type": "boolean",
          "required": false
        },
        {
          "id": "preheader",
          "name": "Preheader",
          "type": "string",
          "required": false
        },
        {
          "id": "header",
          "name": "Header",
          "type": "string",
          "required": false
        },
        {
          "id": "bannerCarousel",
          "name": "Banner Carousel",
          "type": "boolean",
          "required": false
        },
        {
          "id": "productCarousel",
          "name": "Product Carousel",
          "type": "boolean",
          "required": false
        }
      ]
    }
  ],
  "region_definitions": [
    {
      "id":"slides",
      "name":"Slides",
      "component_type_exclusions": [
        { "type_id": "commerce_layouts.carousel" },
        { "type_id": "commerce_layouts.mobileGrid2r3c" },
        { "type_id": "commerce_layouts.mobileGrid3r2c" },
        { "type_id": "commerce_layouts.einsteinCarousel" },
        { "type_id": "commerce_layouts.einsteinCarouselCategory" },
        { "type_id": "commerce_layouts.einsteinCarouselProduct" },
        { "type_id": "commerce_layouts.mobileGridLookBook" }
      ]
    }
  ]
}
