{
    "name": "container",
    "group": "commerce_layouts",
    "attribute_definition_groups": [
        {
            "id": "bodyConfiguration",
            "name": "Configuration",
            "description": "Configuration main content",
            "attribute_definitions": [
                {
                    "id": "fullWidth",
                    "name": "Full Width Container",
                    "type": "boolean",
                    "required": false
                },
                {
                    "id": "cssClass",
                    "name": "Custom CSS Class for Text Block",
                    "type": "string",
                    "required": false
                }
            ]
        }
    ],
    "region_definitions": [
        {
            "id":"content",
            "name":"content",
            "component_type_exclusions": []
        }
    ]
}
