{
    "name": "diorStaticLayout",
    "group": "commerce_layouts",
    "attribute_definition_groups": [
      {
        "id": "header",
        "attribute_definitions": [
            {
                "id": "head",
                "name": "Head",
                "type": "string",
                "required": false
            },
            {
                "id": "title",
                "name": "Title",
                "type": "string",
                "required": false
            },
            {
                "id": "subTitle",
                "name": "SubTitle",
                "type": "string",
                "required": false
            },
            {
                "id": "description",
                "name": "Description",
                "type": "markup",
                "required": false
            },
            {
                "id": "descriptionCenter",
                "name": "DescriptionCenter",
                "type": "boolean",
                "required": false
            }
        ]
      }
    ],
    "region_definitions": [
        {
            "id":"column1",
            "name":"Column 1",
            "component_type_exclusions": []
        }
    ]
  }
